…
      From worker 14:	[ Info: Processing scopehal_jll.jl...
      From worker 31:	[ Info: Processing seatd_jll.jl...
      From worker 10:	[ Info: Processing sed_jll.jl...
      From worker 20:	[ Info: Processing sgtsnepi_jll.jl...
      From worker 11:	[ Info: Processing simdjson_jll.jl...
      From worker 8:	[ Info: Processing snappy_jll.jl...
      From worker 5:	[ Info: Processing soapysdr_jll.jl...
      From worker 29:	[ Info: Processing sparseQFCA.jl...
      From worker 2:	[ Info: Processing spectra_jll.jl...
      From worker 9:	[ Info: Processing spglib_jll.jl...
[ Info: Initiating type annotations analysis...
[ Info: *** TYPE ANNOTATIONS
┌ Info: Total tasntrvbnd:
│   v =
│    9×18 DataFrame
│     Row │ File                           Function         Kind        TypeAn ⋯
│         │ String?                        Any              String15    String ⋯
│    ─────┼─────────────────────────────────────────────────────────────────────
│       1 │ test/test_piracy.jl            Base.findfirst   mtsig       Tuple{ ⋯
│       2 │ test/inheritance.jl            <NOT A FUNSIG>   tyassorann  Pair{S
│      ⋮  │               ⋮                       ⋮             ⋮              ⋱
│       9 │ test/syntax_traits.jl          fs2              mtsig       Tuple{
└                                                  15 columns and 6 rows omitted
┌ Info: Total tasiusvar:
│   v =
│    6×18 DataFrame
│     Row │ File                               Function                Kind    ⋯
│         │ String?                            Any                     String1 ⋯
│    ─────┼─────────────────────────────────────────────────────────────────────
│       1 │ test/Utils/UtilsTests.jl           <NOT A FUNSIG>          tyassor ⋯
│       2 │ src/algorithms/posterior_factori…  PosteriorFactorization  mtsig
│      ⋮  │                 ⋮                            ⋮                 ⋮   ⋱
│       6 │ src/UnitfulEquivalences.jl         dimtype                 mtsig
└                                                  16 columns and 3 rows omitted
┌ Info: Total pkgwarn:
│   v =
│    1632-element Vector{Any}:
│     "data/ta-info/all/ACME.jl"
│     "data/ta-info/all/AD4SM.jl"
│     "data/ta-info/all/ADCME.jl"
│     "data/ta-info/all/ADRIA.jl"
│     ⋮
│     "data/ta-info/all/cuDNN.jl"
│     "data/ta-info/all/oneAPI.jl"
└     "data/ta-info/all/openPMD.jl"
┌ Info: Total tasexininv:
│   v =
│    1146×18 DataFrame
│      Row │ File                     Function                  Kind        Ty ⋯
│          │ String?                  Any                       String15    St ⋯
│    ──────┼────────────────────────────────────────────────────────────────────
│        1 │ src/run.jl               Base.run                  mtsig       Tu ⋯
│        2 │ src/metrics/pareto.jl    nds                       retty       Ve
│      ⋮   │            ⋮                        ⋮                  ⋮          ⋱
│     1146 │ src/statevec.jl          expectationsOnPauliBasis  mtsig       Tu
└                                               15 columns and 1143 rows omitted
┌ Info: Total pkgusesite:
│   v =
│    3437-element Vector{Any}:
│     "data/ta-info/all/ACME.jl"
│     "data/ta-info/all/AD4SM.jl"
│     "data/ta-info/all/ADCME.jl"
│     "data/ta-info/all/ADI.jl"
│     ⋮
│     "data/ta-info/all/openPMD.jl"
│     "data/ta-info/all/uCSV.jl"
└     "data/ta-info/all/vSmartMOM.jl"
┌ Info: Total tasusvar:
│   v =
│    64050×18 DataFrame
│       Row │ File                               Function         Kind      Ty ⋯
│           │ String?                            Any              String15  St ⋯
│    ───────┼───────────────────────────────────────────────────────────────────
│         1 │ src/kdtree.jl                      enqueue!         mtsig     Tu ⋯
│         2 │ src/adiff.jl                       zero             mtsig     (T
│       ⋮   │                 ⋮                         ⋮            ⋮         ⋱
│     64050 │ test/gpu_tests/matrix_inv_test.jl  batch_solve!     mtsig     Tu
└                                              15 columns and 64047 rows omitted
…
│   v =
│    9292-element Vector{Any}:
│     "data/ta-info/all/AAindex.jl"
│     "data/ta-info/all/ABBAj.jl"
│     "data/ta-info/all/ABC_jll.jl"
│     "data/ta-info/all/ABCdeZ.jl"
│     ⋮
│     "data/ta-info/all/zig_jll.jl"
│     "data/ta-info/all/zimg_jll.jl"
└     "data/ta-info/all/zrl_jll.jl"
┌ Info: Total badPkg:
└   v = 1
┌ Info: Total tasintr:
│   v =
│    1638×18 DataFrame
│      Row │ File                     Function                  Kind        Ty ⋯
│          │ String?                  Any                       String15    St ⋯
│    ──────┼────────────────────────────────────────────────────────────────────
│        1 │ src/run.jl               Base.run                  mtsig       Tu ⋯
│        2 │ src/metrics/pareto.jl    nds                       retty       Ve
│      ⋮   │            ⋮                        ⋮                  ⋮          ⋱
│     1638 │ src/statevec.jl          expectationsOnPauliBasis  mtsig       Tu
└                                               15 columns and 1635 rows omitted
…
┌ Info: Total ImprUseSiteVariance:
└  2139874
┌ Info: Total ExistInInv:
└  1146
┌ Info: Total RestrictedScope:
└  2139206
┌ Info: Total ClosedLowerBound:
└  2139874
┌ Info: Total TrivConsistBounds:
└  2139871
┌ Info: 
└ *** TYPE DECLARATIONS
┌ Info: Total tdsusvar:
│   v =
│    2417×16 DataFrame
│      Row │ File                       Name                           Kind    ⋯
│          │ String?                    String?                        String7 ⋯
│    ──────┼────────────────────────────────────────────────────────────────────
│        1 │ src/classic.jl             TiledArray                     tdstrc  ⋯
│        2 │ src/chains.jl              DescendingChain                tdstrc
│      ⋮   │             ⋮                            ⋮                   ⋮    ⋱
│     2417 │ lib/level-zero/pointer.jl  ZeRefArray                     tdstrc
└                                               13 columns and 2414 rows omitted
…
